<?xml version="1.0" encoding="UTF-8" standalone="no"?>
<svg width="9px" height="13px" viewBox="0 0 9 13" version="1.1" xmlns="http://www.w3.org/2000/svg" xmlns:xlink="http://www.w3.org/1999/xlink" xmlns:sketch="http://www.bohemiancoding.com/sketch/ns">
    <!-- Generator: Sketch 3.3.1 (12005) - http://www.bohemiancoding.com/sketch -->
    <title>Rectangle 3 + C</title>
    <desc>Created with Sketch.</desc>
    <defs>
        <filter x="-50%" y="-50%" width="200%" height="200%" filterUnits="objectBoundingBox" id="filter-1">
            <feOffset dx="1" dy="1" in="SourceAlpha" result="shadowOffsetInner1"></feOffset>
            <feGaussianBlur stdDeviation="0" in="shadowOffsetInner1" result="shadowBlurInner1"></feGaussianBlur>
            <feComposite in="shadowBlurInner1" in2="SourceAlpha" operator="arithmetic" k2="-1" k3="1" result="shadowInnerInner1"></feComposite>
            <feColorMatrix values="0 0 0 0 1   0 0 0 0 0.960784314   0 0 0 0 0.776470588  0 0 0 0.7 0" in="shadowInnerInner1" type="matrix" result="shadowMatrixInner1"></feColorMatrix>
            <feMerge>
                <feMergeNode in="SourceGraphic"></feMergeNode>
                <feMergeNode in="shadowMatrixInner1"></feMergeNode>
            </feMerge>
        </filter>
        <filter x="-50%" y="-50%" width="200%" height="200%" filterUnits="objectBoundingBox" id="filter-2">
            <feOffset dx="-1" dy="1" in="SourceAlpha" result="shadowOffsetOuter1"></feOffset>
            <feGaussianBlur stdDeviation="0" in="shadowOffsetOuter1" result="shadowBlurOuter1"></feGaussianBlur>
            <feColorMatrix values="0 0 0 0 1   0 0 0 0 0.959463059   0 0 0 0 0.777797506  0 0 0 0.7 0" in="shadowBlurOuter1" type="matrix" result="shadowMatrixOuter1"></feColorMatrix>
            <feMerge>
                <feMergeNode in="shadowMatrixOuter1"></feMergeNode>
                <feMergeNode in="SourceGraphic"></feMergeNode>
            </feMerge>
        </filter>
    </defs>
    <g id="Page-1" stroke="none" stroke-width="1" fill="none" fill-rule="evenodd" sketch:type="MSPage">
        <g id="Rectangle-3-+-C" sketch:type="MSLayerGroup">
            <path d="M6.69591124,12.1663635 L5.57992603,12.1663635 L4.46394083,12.1663635 L3.34795562,12.1663635 L2.23197041,12.1663635 L1.11598521,12.1663635 L1.11598521,11.1524999 L0,11.1524999 L0,10.1386363 L0,9.12477266 L0,8.11090903 L0,7.0970454 L0,6.08318177 L0,5.06931814 L0,4.05545451 L0,3.04159089 L0,2.02772726 L0,1.01386363 L1.11598521,1.01386363 L1.11598521,0 L2.23197041,0 L3.34795562,0 L4.46394083,0 L5.57992603,0 L6.69591124,0 L7.81189645,0 L7.81189645,1.01386363 L8.92788165,1.01386363 L8.92788165,2.02772726 L8.92788165,3.04159089 L8.92788165,4.05545451 L8.92788165,5.06931814 L8.92788165,6.08318177 L8.92788165,7.0970454 L8.92788165,8.11090903 L8.92788165,9.12477266 L8.92788165,10.1386363 L8.92788165,11.1524999 L7.81189645,11.1524999 L7.81189645,12.1663635 L6.69591124,12.1663635 Z" id="Rectangle-3" fill="#F8DD64" filter="url(#filter-1)" sketch:type="MSShapeGroup"></path>
            <path d="M5.7016129,10.6296543 L5.08467742,10.6296543 L4.46774194,10.6296543 L3.85080645,10.6296543 L3.23387097,10.6296543 L2.61693548,10.6296543 L2.61693548,9.99384973 L2,9.99384973 L2,9.35804521 L2,8.72224069 L2,8.08643617 L2,7.45063165 L2,6.81482713 L2,6.17902261 L2,5.54321809 L2,4.90741356 L2,4.27160904 L2,3.63580452 L2.61693548,3.63580452 L2.61693548,3 L3.23387097,3 L3.85080645,3 L4.46774194,3 L5.08467742,3 L5.7016129,3 L6.31854839,3 L6.31854839,3.63580452 L6.93548387,3.63580452 L6.93548387,4.27160904 L6.93548387,4.90741356 L6.93548387,5.54321809 L6.31854839,5.54321809 L5.7016129,5.54321809 L5.7016129,4.90741356 L5.7016129,4.27160904 L5.08467742,4.27160904 L4.46774194,4.27160904 L3.85080645,4.27160904 L3.23387097,4.27160904 L3.23387097,4.90741356 L3.23387097,5.54321809 L3.23387097,6.17902261 L3.23387097,6.81482713 L3.23387097,7.45063165 L3.23387097,8.08643617 L3.23387097,8.72224069 L3.23387097,9.35804521 L3.85080645,9.35804521 L4.46774194,9.35804521 L5.08467742,9.35804521 L5.7016129,9.35804521 L5.7016129,8.72224069 L5.7016129,8.08643617 L6.31854839,8.08643617 L6.93548387,8.08643617 L6.93548387,8.72224069 L6.93548387,9.35804521 L6.93548387,9.99384973 L6.31854839,9.99384973 L6.31854839,10.6296543 L5.7016129,10.6296543 Z" id="C" fill="#062E53" filter="url(#filter-2)" sketch:type="MSShapeGroup"></path>
        </g>
    </g>
</svg>