<?xml version="1.0" encoding="UTF-8" standalone="no"?>
<svg width="32px" height="32px" viewBox="0 0 32 32" version="1.1" xmlns="http://www.w3.org/2000/svg" xmlns:xlink="http://www.w3.org/1999/xlink" xmlns:sketch="http://www.bohemiancoding.com/sketch/ns">
    <!-- Generator: Sketch 3.3.1 (12005) - http://www.bohemiancoding.com/sketch -->
    <title>plus</title>
    <desc>Created with Sketch.</desc>
    <defs>
        <filter x="-50%" y="-50%" width="200%" height="200%" filterUnits="objectBoundingBox" id="filter-1">
            <feOffset dx="2" dy="2" in="SourceAlpha" result="shadowOffsetInner1"></feOffset>
            <feGaussianBlur stdDeviation="0" in="shadowOffsetInner1" result="shadowBlurInner1"></feGaussianBlur>
            <feComposite in="shadowBlurInner1" in2="SourceAlpha" operator="arithmetic" k2="-1" k3="1" result="shadowInnerInner1"></feComposite>
            <feColorMatrix values="0 0 0 0 0.820223289   0 0 0 0 1   0 0 0 0 0.68183791  0 0 0 0.7 0" in="shadowInnerInner1" type="matrix" result="shadowMatrixInner1"></feColorMatrix>
            <feMerge>
                <feMergeNode in="SourceGraphic"></feMergeNode>
                <feMergeNode in="shadowMatrixInner1"></feMergeNode>
            </feMerge>
        </filter>
        <filter x="-50%" y="-50%" width="200%" height="200%" filterUnits="objectBoundingBox" id="filter-2">
            <feOffset dx="-1" dy="1" in="SourceAlpha" result="shadowOffsetOuter1"></feOffset>
            <feGaussianBlur stdDeviation="0" in="shadowOffsetOuter1" result="shadowBlurOuter1"></feGaussianBlur>
            <feColorMatrix values="0 0 0 0 0.819607843   0 0 0 0 1   0 0 0 0 0.682352941  0 0 0 0.7 0" in="shadowBlurOuter1" type="matrix" result="shadowMatrixOuter1"></feColorMatrix>
            <feMerge>
                <feMergeNode in="shadowMatrixOuter1"></feMergeNode>
                <feMergeNode in="SourceGraphic"></feMergeNode>
            </feMerge>
        </filter>
    </defs>
    <g id="Page-1" stroke="none" stroke-width="1" fill="none" fill-rule="evenodd" sketch:type="MSPage">
        <g id="plus" sketch:type="MSLayerGroup">
            <path d="M2,32 L2,30 L0,30 L0,2 L2,2 L2,0 L30,0 L30,2 L32,2 L32,30 L30,30 L30,32 L2,32 Z" id="button" fill="#5FF5A0" filter="url(#filter-1)" sketch:type="MSShapeGroup"></path>
            <path d="M15.5,23 L13.3333333,23 L13.3333333,20.8333333 L13.3333333,18.6666667 L11.1666667,18.6666667 L9,18.6666667 L9,16.5 L9,14.3333333 L11.1666667,14.3333333 L13.3333333,14.3333333 L13.3333333,12.1666667 L13.3333333,10 L15.5,10 L17.6666667,10 L17.6666667,12.1666667 L17.6666667,14.3333333 L19.8333333,14.3333333 L22,14.3333333 L22,16.5 L22,18.6666667 L19.8333333,18.6666667 L17.6666667,18.6666667 L17.6666667,20.8333333 L17.6666667,23 L15.5,23 Z" id="+" fill="#062E53" filter="url(#filter-2)" sketch:type="MSShapeGroup"></path>
        </g>
    </g>
</svg>